﻿# Invoice Report 

default font		arial
default fontsize	10

# Width  = 790
# Height = 1040

# Header Info
#									X	Y	WIDTH	HEIGHT
image	Logo.png							20	0	118	52
label	EXCO TOOLING SOLUTIONS S.A.S.					18	60	250	20		fontsize	15	bold
label	NIT. 900.422.989-4						20	80	250	11		fontsize	8
label	Regimen Comun							20	91	250	11		fontsize	8
label	Zona Franca Vda Chachafruto Bodega 212				20	102	250	11		fontsize	8
label	Telefono: 562 87 55						20	113	250	11		fontsize	8
label	Consignara en: Cta Bancolombia Pais origen  Pais destino	20	124	250	11		fontsize	8
label	No. 031-704415-35 EXCO S.A.S.					20	135	250	11		fontsize	8

#				X	Y	WIDTH	HEIGHT		OPTIONS
label	FACTURA ETS2		415	0	100	50		fontsize	22	bold
field	invoicenumber		770	0	100	50		fontsize	22	bold	right

label	FECHA DE FACTURACION	555	40	215	25		fontsize	11	center	bold	shade	box
field	InvoiceDate		555	65	215	25		center	box

label	FECHA DE ENVIO		555	90	215	25		fontsize	11	center	bold	shade	box
field	ShipDate		555	115	215	25		center	box

# Billing Address Info
label	Vendido a:		20	155	200	15
field	CustomerName		95	155	200	15
field	BAddress1		95	172	200	15
field	BAddress2		95	189	200	15
field	BAddress3		95	206	200	15
field	BAddress4		95	223	200	15
field	SupplierCode		95	240	200	15
field	BPostalCode		355	240	200	15		right


# Shipping Address Info
label	Enviado a:		385	155	200	15
field	CustomerName		460	155	200	15
field	SAddress1		460	172	200	15
field	SAddress2		460	189	200	15
field	SAddress3		460	206	200	15
field	SAddress4		460	223	200	15
field	SupplierCode		460	240	200	15
field	SPostalCode		770	240	200	15		right


# Middle Row Headers
label	LISTA DE EMPAQUE	20	280	250	25		bold	center	shade	box
label	ORDEN DE COMPRA		270	280	250	25		bold	center	shade	box
label	TERMINOS DE PAGO	520	280	250	25		bold	center	shade	box

# Middle Row Info
field	ordernumber		20	305	250	35		center	box
field	CustomerPO		270	305	250	35		center	box
field	Terms			520	305	250	35		center	box

# Order Info Headers
label	NUMERO ITEM		20	340	140	25		bold	center	shade	box
label	DESCRIPCION		160	340	310	25		bold	center	shade	box
label	CANTIDAD		470	340	80	25		bold	center	shade	box
label	PRECIO UND		550	340	110	25		bold	center	shade	box
label	VALOR BRUTO		660	340	110	25		bold	center	shade	box

# Order Info Boxes
drawbox				20	365	140	610
drawbox				160	365	310	610
drawbox				470	365	80	610
drawbox				550	365	110	610
drawbox				660	365	110	610

# Summary Lines
label	CLIENTE NO.		20	975	220	25		box
field	customercode		220	975	220	25		right
label	VALOR A PAGAR		400	975	370	25		bold	box
field	Currency		520	975	220	25		bold
field	total			760	975	220	25		bold	right	currency	UPDATE_Y



loop	TaxItems	0	950	-25

	field	TaxName		400	0	370	25				box	clearbg
	field	taxamount	760	0	110	25		right	currency	UPDATE_Y

end


label	FLETE			400	0	370	25					box	clearbg		condition	freight		USE_Y	SUBTRACT
field	freight			760	0	110	25		right	currency	condition	freight		USE_Y	SUBTRACT	UPDATE_Y

label	DISCOUNT		400	0	370	25					box	clearbg		condition	discountamount	USE_Y	SUBTRACT
field	discountamount		760	0	110	25		right	currency	condition	discountamount	USE_Y	SUBTRACT	UPDATE_Y

label	VALOR BRUTO		400	0	370	25					box	clearbg		USE_Y	SUBTRACT
field	SubTotalNoDiscount	760	0	110	25		right	currency	USE_Y	SUBTRACT	UPDATE_Y

RESET_Y


# Order Items / Charges
loop	OrderItems	0	380	25
#				X	Y	WIDTH	HEIGHT	OPTIONS
	field	dienumber	30	0	120	25	hcenter
	field	description	170	0	430	25
	label	LOCALIZACION:	190	15	160	25
	field	location	295	15	370	25
	label	NOTA:		190	30	160	25
	field	note		240	30	370	25
	field	qty		470	0	 80	25	hcenter
	field	baseprice	650	0	 90	25	right	currency
	field	baseprice	760	0	 90	25	right	currency

	loop	Charges		0	45	25
#					X	Y	WIDTH	HEIGHT	OPTIONS
		field	chargename	210	0	160	25
		field	qty		470	0	 80	25	hcenter			!condition	chargename=NITRIDING
		field	chargeprice	650	0	 90	25	right	currency	!condition	chargename=NITRIDING
		field	price		760	0	 90	25	right	currency
	end

	label	RECARGO DE ACERO	210	0	430	25				condition	steelcost
	field	steelcost		760	0	90	25	right	currency	condition	steelcost
end

# Disclaimer
label	Facturas habilitadas según resolución No. 110000469204 de Diciembre 27, 2011 Rango ETS2 0001 al ETS 80000.	20	1000	750	11	fontsize	7
label	Esta factura de venta constituye un titulo valor según la ley 1231 de Julio de 2008. Art 617 del Estatuto Tributario. La mora en el pago de esta factura originará intereses.	20	1011	750	11	fontsize	7